{
    "$schema": "https://themost-framework.github.io/themost/models/2018/2/schema.json",
    "@id": "https://universis.io/schemas/DocumentStatusType",
    "name": "DocumentStatusType",
    "description": "The status of a document.",
    "title": "DocumentStatusType",
    "abstract": false,
    "sealed": false,
    "implements": "Enumeration",
    "version": "1.0",
    "fields": [
        {
            "@id": "http://schema.org/additionalType",
            "name": "additionalType",
            "type": "Text",
            "readonly": true,
            "nullable": false,
            "value": "javascript:return this.model.name;"
        },
        {
            "@id": "http://schema.org/alternateName",
            "name": "alternateName",
            "type": "Text",
            "nullable": false
        },
        {
            "@id": "http://schema.org/name",
            "name": "name",
            "type": "Text",
            "nullable": false
        }
    ],
    "privileges": [
        {
            "mask": 1,
            "type": "global",
            "account": "*"
        },
        {
            "mask": 15,
            "type": "global"
        },
        {
            "mask": 15,
            "type": "global",
            "account": "Administrators"
        }
    ],
    "constraints": [
        {
            "type": "unique",
            "fields": [
                "alternateName"
            ]
        }
    ],
    "seed": [
        {
            "name": "Created",
            "alternateName": "CreatedDocumentStatus",
            "description": "Indicates that a document has been created.",
            "url": "https://universis.io/schemas/CreatedDocumentStatus"
        },
        {
            "name": "Processing",
            "alternateName": "ProcessingDocumentStatus",
            "description": "Indicates that a document is on processing e.g. editing, waiting approval etc.",
            "url": "https://universis.io/schemas/ProcessingDocumentStatus"
        },
        {
            "name": "Cancelled",
            "alternateName": "CancelledDocumentStatus",
            "description": "Indicates that a document publishing or processing has been cancelled",
            "url": "https://universis.io/schemas/CancelledDocumentStatus"
        },
        {
            "name": "Archived",
            "alternateName": "PublishedActionStatus",
            "description": "Indicates that a document has been successfully archived.",
            "url": "https://universis.io/schemas/PublishedDocumentStatus"
        },
        {
            "name": "Published",
            "alternateName": "PublishedActionStatus",
            "description": "Indicates that a document has been successfully published.",
            "url": "https://universis.io/schemas/PublishedDocumentStatus"
        }
    ]
}